IODS course project
…
l14 <- read_csv("C:/Users/SM/Documents/IODS-project/data/learning2014.csv")

## Rows: 166 Columns: 7
## -- Column specification --------------------------------------------------------
## Delimiter: ","
## chr (1): gender
## dbl (6): age, attitude, deep, stra, surf, points
## 
## i Use `spec()` to retrieve the full column specification for this data.
## i Specify the column types or set `show_col_types = FALSE` to quiet this message.

# inspecting the data
l14 # viewing the data table

## # A tibble: 166 x 7
##    gender   age attitude  deep  stra  surf points
##    <chr>  <dbl>    <dbl> <dbl> <dbl> <dbl>  <dbl>
##  1 F         53      3.7  3.58  3.38  2.58     25
##  2 M         55      3.1  2.92  2.75  3.17     12
##  3 F         49      2.5  3.5   3.62  2.25     24
##  4 M         53      3.5  3.5   3.12  2.25     10
##  5 M         49      3.7  3.67  3.62  2.83     22
##  6 F         38      3.8  4.75  3.62  2.42     21
##  7 M         50      3.5  3.83  2.25  1.92     21
##  8 F         37      2.9  3.25  4     2.83     31
##  9 M         37      3.8  4.33  4.25  2.17     24
## 10 F         42      2.1  4     3.5   3        26
## # ... with 156 more rows
…
